<?xml version="1.0" encoding="UTF-8"?>
<gpx
  version="1.1"
  creator="MTKBabel - http://www.rigacci.org/"
  xmlns="http://www.topografix.com/GPX/1/1"
  xmlns:xsi="http://www.w3.org/2001/XMLSchema-instance"
  xmlns:mtk="http://www.rigacci.org/gpx/MtkExtensions/v1"
  xsi:schemaLocation="http://www.topografix.com/GPX/1/1 http://www.topografix.com/GPX/1/1/gpx.xsd
                      http://www.rigacci.org/gpx/MtkExtensions/v1 http://www.rigacci.org/gpx/MtkExtensions/v1/MtkExtensionsv1.xsd">
<metadata>
  <time>2014-07-23T08:52:23Z</time>
 <bounds minlat="60.19325801" minlon="24.93093601" maxlat="60.19359201" maxlon="24.93516301" />
</metadata>
<trk>
  <name>2014-07-22T19:01:04Z</name>
<trkseg>
<trkpt lat="60.19359201" lon="24.93093601">
  <ele>4.001</ele>
  <time>2009-02-14T13:57:35Z</time>
</trkpt>
<trkpt lat="60.19357301" lon="24.93098101">
  <time>2009-02-14T13:57:39Z</time>
</trkpt>
<trkpt lat="60.19354101" lon="24.93100701">
  <ele>-1.001</ele>
  <time>2009-02-14T13:57:42Z</time>
</trkpt>
</trkseg>
<trkseg>
<trkpt lat="60.19325801" lon="24.93516301">
  <time>2009-02-14T14:01:07Z</time>
</trkpt>
</trkseg>
</trk>
</gpx>
